    <script>
        
        const num1 = +prompt("Digite o primeiro número:");
        const num2 = +prompt("Digite o segundo número:");

        const soma = num1 + num2;
        const subtracao = num1 - num2;
        const multiplicacao = num1 * num2;
        const divisao = num1 / num2;
        const restoDivisao = num1 % num2;

        console.log("Soma: " + soma);
        console.log("Subtração: " + subtracao);
        console.log("Multiplicação: " + multiplicacao)
        console.log("Divisão: " + divisao);
        console.log("Resto da divisão: " + restoDivisao);

    </script>